data analysis
…
ipad$`Spend ($)` <- as.numeric(ipad$`Spend ($)`)
surface$`Spend ($)` <- as.numeric(surface$`Spend ($)`)

ipad %>%
  group_by(`Network Type`,Network) %>%
  summarise(n = n(), totalcost= sum(`Spend ($)`),avgcost = totalcost/n)

## # A tibble: 44 x 5
## # Groups:   Network Type [2]
##    `Network Type` Network        n totalcost  avgcost
##    <chr>          <chr>      <int>     <dbl>    <dbl>
##  1 broadcast      ABC            8    435653  54457. 
##  2 broadcast      CBS           10   2492823 249282. 
##  3 broadcast      CW             5    153787  30757. 
##  4 broadcast      FOX           10   2337185 233718. 
##  5 broadcast      NBC           22   4390936 199588  
##  6 broadcast      Telemundo     16     51524   3220. 
##  7 broadcast      UniMas         1       649    649  
##  8 broadcast      Univision      8     33321   4165. 
##  9 cable          Adult Swim    19       865     45.5
## 10 cable          AMC           30    189867   6329. 
## #  with 34 more rows

surface %>%
  group_by(`Network Type`,Network) %>%
  summarise(n = n(),totalcost= sum(`Spend ($)`),avgcost = totalcost/n)

## # A tibble: 35 x 5
## # Groups:   Network Type [2]
##    `Network Type` Network        n totalcost avgcost
##    <chr>          <chr>      <int>     <dbl>   <dbl>
##  1 broadcast      ABC           32   1989453 62170. 
##  2 broadcast      CBS           16   1195131 74696. 
##  3 broadcast      CW            31    344947 11127. 
##  4 broadcast      FOX           44   3909422 88850. 
##  5 broadcast      NBC          165  12502341 75772. 
##  6 cable          A&E           38     87798  2310. 
##  7 cable          Adult Swim    13       249    19.2
##  8 cable          AMC           77    125112  1625. 
##  9 cable          BET           49     54017  1102. 
## 10 cable          Bravo         96    295303  3076. 
## #  with 25 more rows
…
